[    -0.99979      0.00676      0.01941      0.05674
     -0.00676      0.78370     -0.62110     -0.06480
     -0.01941     -0.62110     -0.78349     -0.48213
      0.00000      0.00000      0.00000      1.00000]