[     1.51966      0.00000      0.01658      0.00000
      0.00000      2.70199     -0.06148      0.00000
      0.00000      0.00000     -1.00000      0.00000
      0.00000      0.00000     -1.00000      0.00000]