[    -0.99998     -0.00066     -0.00546      3.87691
     -0.00545     -0.01011      0.99993     -0.76863
     -0.00072      0.99995      0.01011     -2.15222
      0.00000      0.00000      0.00000      1.00000]