[    -0.99995      0.00132     -0.00967      3.87356
     -0.00969     -0.01389      0.99986     -0.74293
      0.00119      0.99990      0.01391     -2.16459
      0.00000      0.00000      0.00000      1.00000]