[    -0.99995     -0.00044     -0.00934      3.87688
     -0.00933     -0.01161      0.99989     -0.74920
     -0.00055      0.99993      0.01160     -2.15789
      0.00000      0.00000      0.00000      1.00000]