[    -0.99999     -0.00271     -0.00320      3.88517
     -0.00318     -0.00663      0.99997     -0.78122
     -0.00273      0.99997      0.00662     -2.14145
      0.00000      0.00000      0.00000      1.00000]